Introduction to icd10es
…
exampleCerificates
#> # A tibble: 10 x 2
#>      id cause                                                                   
#>   <dbl> <chr>                                                                   
#> 1     1 HEMORRAGIA SUBARACNOIDEA. HIPERTENSION ARTERIAL SISTEMICA. DISLIPIDEMIA.
#> 2     2 INFARTO CEREBRAL, HIPERTENSION ARTERIAL SISTEMICA, TRIGLICERIDEMIA.     
#> 3     3 HERIDA PRODUCIDA POR PROYECTIL DE ARMA DE FUEGO PENETRANTE DE TORAX.    
#> 4     4 CHOQUE HIPOVOLEMICO, DIARREA CRONICA, INFECCION POR VIRUS DE INMUNODEFI…
#> # … with 6 more rows
…
